<?xml version="1.0" encoding="UTF-8" standalone="no"?>
<svg width="10px" height="6px" viewBox="0 0 10 6" version="1.1" xmlns="http://www.w3.org/2000/svg" xmlns:xlink="http://www.w3.org/1999/xlink">
    <!-- Generator: Sketch 48.2 (47327) - http://www.bohemiancoding.com/sketch -->
    <title>drop down arrow</title>
    <desc>Created with Sketch.</desc>
    <defs></defs>
    <g id="1" stroke="none" stroke-width="1" fill="none" fill-rule="evenodd" transform="translate(-420.000000, -30.000000)">
        <g id="Group-4" fill="#6D6D6D">
            <path d="M422.449747,27.4497475 L428.449747,27.4497475 L428.449747,28.4497475 L422.449747,28.4497475 L422.449747,34.4497475 L421.449747,34.4497475 L421.449747,27.4497475 L422.449747,27.4497475 Z" id="drop-down-arrow" transform="translate(424.949747, 30.949747) scale(1, -1) rotate(-315.000000) translate(-424.949747, -30.949747) "></path>
        </g>
    </g>
</svg>